Assignment 1
…
BMI_train_clean <- BMI_training_models %>% filter(FDR <= 0.05) 
BMI_test_clean <- BMI_testing_models %>% filter(p < 0.05)
BMI_replicated <- inner_join(BMI_train_clean, BMI_test_clean,by = "ExposureList") %>% select(ExposureList, expo_name.x, estimate.x, estimate.y, FDR.x, p.y)

BMI_replicated <- BMI_replicated %>% filter(estimate.x * estimate.y >0) 
BMI_replicated

## # A tibble: 57 x 6
##    ExposureList expo_name.x              estimate.x estimate.y    FDR.x      p.y
##    <chr>        <chr>                         <dbl>      <dbl>    <dbl>    <dbl>
##  1 LBXBPB       Lead (ug/dL)                -0.204     -0.203  9.08e-10 8.82e-12
##  2 LBXCOT       Cotinine (ng/mL)             0.0358     0.0526 1.89e- 2 2.88e- 5
##  3 URXUBA       Barium, urine (ng/mL)        0.0511     0.0774 9.39e- 3 1.31e- 4
##  4 URXUSB       Antimony, urine (ng/mL)      0.0584     0.0482 2.69e- 2 4.27e- 3
##  5 URXUTL       Thallium, urine (ng/mL)      0.0744     0.101  1.97e- 5 3.89e- 5
##  6 LBXB12       Vitamin B12, serum (pg/    -0.205     -0.190  2.53e-13 1.21e-12
##  7 LBXFOL       Folate, serum (ng/mL)       -0.191     -0.182  2.53e-13 1.77e-14
##  8 LBXVID       Vitamin D (ng/mL)           -0.260     -0.255  1.78e- 5 1.63e-15
##  9 URXMEP       Mono-ethyl phthalate         0.109      0.110  1.18e- 5 1.23e- 5
## 10 URXMZP       Mono-benzyl phthalate        0.0603     0.0579 4.05e- 2 1.58e- 3
## #  with 47 more rows
…
